{
  "runtimeTarget": {
    "name": ".NETCoreApp,Version=v6.0",
    "signature": ""
  },
  "compilationOptions": {},
  "targets": {
    ".NETCoreApp,Version=v6.0": {
      "Genesis.Core.Plugin/1.0.0": {
        "dependencies": {
          "Genesis.Core": "1.0.0",
          "Genesis.Plugin": "1.0.0"
        },
        "runtime": {
          "Genesis.Core.Plugin.dll": {}
        }
      },
      "Humanizer.Core/2.14.1": {
        "runtime": {
          "lib/net6.0/Humanizer.dll": {
            "assemblyVersion": "2.14.0.0",
            "fileVersion": "2.14.1.48190"
          }
        }
      },
      "LazyCache/2.1.3": {
        "dependencies": {
          "Microsoft.Extensions.Caching.Abstractions": "2.1.0",
          "Microsoft.Extensions.Caching.Memory": "2.1.0"
        },
        "runtime": {
          "lib/netstandard2.0/LazyCache.dll": {
            "assemblyVersion": "2.1.3.171",
            "fileVersion": "2.1.3.171"
          }
        }
      },
      "Microsoft.Bcl.AsyncInterfaces/7.0.0": {
        "runtime": {
          "lib/netstandard2.1/Microsoft.Bcl.AsyncInterfaces.dll": {
            "assemblyVersion": "7.0.0.0",
            "fileVersion": "7.0.22.51805"
          }
        }
      },
      "Microsoft.CodeAnalysis.Analyzers/3.3.4": {},
      "Microsoft.CodeAnalysis.Common/4.6.0": {
        "dependencies": {
          "Microsoft.CodeAnalysis.Analyzers": "3.3.4",
          "System.Collections.Immutable": "7.0.0",
          "System.Reflection.Metadata": "7.0.0",
          "System.Runtime.CompilerServices.Unsafe": "6.0.0",
          "System.Text.Encoding.CodePages": "7.0.0"
        },
        "runtime": {
          "lib/net6.0/Microsoft.CodeAnalysis.dll": {
            "assemblyVersion": "4.6.0.0",
            "fileVersion": "4.600.23.25908"
          }
        },
        "resources": {
          "lib/net6.0/cs/Microsoft.CodeAnalysis.resources.dll": {
            "locale": "cs"
          },
          "lib/net6.0/de/Microsoft.CodeAnalysis.resources.dll": {
            "locale": "de"
          },
          "lib/net6.0/es/Microsoft.CodeAnalysis.resources.dll": {
            "locale": "es"
          },
          "lib/net6.0/fr/Microsoft.CodeAnalysis.resources.dll": {
            "locale": "fr"
          },
          "lib/net6.0/it/Microsoft.CodeAnalysis.resources.dll": {
            "locale": "it"
          },
          "lib/net6.0/ja/Microsoft.CodeAnalysis.resources.dll": {
            "locale": "ja"
          },
          "lib/net6.0/ko/Microsoft.CodeAnalysis.resources.dll": {
            "locale": "ko"
          },
          "lib/net6.0/pl/Microsoft.CodeAnalysis.resources.dll": {
            "locale": "pl"
          },
          "lib/net6.0/pt-BR/Microsoft.CodeAnalysis.resources.dll": {
            "locale": "pt-BR"
          },
          "lib/net6.0/ru/Microsoft.CodeAnalysis.resources.dll": {
            "locale": "ru"
          },
          "lib/net6.0/tr/Microsoft.CodeAnalysis.resources.dll": {
            "locale": "tr"
          },
          "lib/net6.0/zh-Hans/Microsoft.CodeAnalysis.resources.dll": {
            "locale": "zh-Hans"
          },
          "lib/net6.0/zh-Hant/Microsoft.CodeAnalysis.resources.dll": {
            "locale": "zh-Hant"
          }
        }
      },
      "Microsoft.CodeAnalysis.CSharp/4.6.0": {
        "dependencies": {
          "Microsoft.CodeAnalysis.Common": "4.6.0"
        },
        "runtime": {
          "lib/net6.0/Microsoft.CodeAnalysis.CSharp.dll": {
            "assemblyVersion": "4.6.0.0",
            "fileVersion": "4.600.23.25908"
          }
        },
        "resources": {
          "lib/net6.0/cs/Microsoft.CodeAnalysis.CSharp.resources.dll": {
            "locale": "cs"
          },
          "lib/net6.0/de/Microsoft.CodeAnalysis.CSharp.resources.dll": {
            "locale": "de"
          },
          "lib/net6.0/es/Microsoft.CodeAnalysis.CSharp.resources.dll": {
            "locale": "es"
          },
          "lib/net6.0/fr/Microsoft.CodeAnalysis.CSharp.resources.dll": {
            "locale": "fr"
          },
          "lib/net6.0/it/Microsoft.CodeAnalysis.CSharp.resources.dll": {
            "locale": "it"
          },
          "lib/net6.0/ja/Microsoft.CodeAnalysis.CSharp.resources.dll": {
            "locale": "ja"
          },
          "lib/net6.0/ko/Microsoft.CodeAnalysis.CSharp.resources.dll": {
            "locale": "ko"
          },
          "lib/net6.0/pl/Microsoft.CodeAnalysis.CSharp.resources.dll": {
            "locale": "pl"
          },
          "lib/net6.0/pt-BR/Microsoft.CodeAnalysis.CSharp.resources.dll": {
            "locale": "pt-BR"
          },
          "lib/net6.0/ru/Microsoft.CodeAnalysis.CSharp.resources.dll": {
            "locale": "ru"
          },
          "lib/net6.0/tr/Microsoft.CodeAnalysis.CSharp.resources.dll": {
            "locale": "tr"
          },
          "lib/net6.0/zh-Hans/Microsoft.CodeAnalysis.CSharp.resources.dll": {
            "locale": "zh-Hans"
          },
          "lib/net6.0/zh-Hant/Microsoft.CodeAnalysis.CSharp.resources.dll": {
            "locale": "zh-Hant"
          }
        }
      },
      "Microsoft.CodeAnalysis.CSharp.Workspaces/4.6.0": {
        "dependencies": {
          "Humanizer.Core": "2.14.1",
          "Microsoft.CodeAnalysis.CSharp": "4.6.0",
          "Microsoft.CodeAnalysis.Common": "4.6.0",
          "Microsoft.CodeAnalysis.Workspaces.Common": "4.6.0"
        },
        "runtime": {
          "lib/net6.0/Microsoft.CodeAnalysis.CSharp.Workspaces.dll": {
            "assemblyVersion": "4.6.0.0",
            "fileVersion": "4.600.23.25908"
          }
        },
        "resources": {
          "lib/net6.0/cs/Microsoft.CodeAnalysis.CSharp.Workspaces.resources.dll": {
            "locale": "cs"
          },
          "lib/net6.0/de/Microsoft.CodeAnalysis.CSharp.Workspaces.resources.dll": {
            "locale": "de"
          },
          "lib/net6.0/es/Microsoft.CodeAnalysis.CSharp.Workspaces.resources.dll": {
            "locale": "es"
          },
          "lib/net6.0/fr/Microsoft.CodeAnalysis.CSharp.Workspaces.resources.dll": {
            "locale": "fr"
          },
          "lib/net6.0/it/Microsoft.CodeAnalysis.CSharp.Workspaces.resources.dll": {
            "locale": "it"
          },
          "lib/net6.0/ja/Microsoft.CodeAnalysis.CSharp.Workspaces.resources.dll": {
            "locale": "ja"
          },
          "lib/net6.0/ko/Microsoft.CodeAnalysis.CSharp.Workspaces.resources.dll": {
            "locale": "ko"
          },
          "lib/net6.0/pl/Microsoft.CodeAnalysis.CSharp.Workspaces.resources.dll": {
            "locale": "pl"
          },
          "lib/net6.0/pt-BR/Microsoft.CodeAnalysis.CSharp.Workspaces.resources.dll": {
            "locale": "pt-BR"
          },
          "lib/net6.0/ru/Microsoft.CodeAnalysis.CSharp.Workspaces.resources.dll": {
            "locale": "ru"
          },
          "lib/net6.0/tr/Microsoft.CodeAnalysis.CSharp.Workspaces.resources.dll": {
            "locale": "tr"
          },
          "lib/net6.0/zh-Hans/Microsoft.CodeAnalysis.CSharp.Workspaces.resources.dll": {
            "locale": "zh-Hans"
          },
          "lib/net6.0/zh-Hant/Microsoft.CodeAnalysis.CSharp.Workspaces.resources.dll": {
            "locale": "zh-Hant"
          }
        }
      },
      "Microsoft.CodeAnalysis.Workspaces.Common/4.6.0": {
        "dependencies": {
          "Humanizer.Core": "2.14.1",
          "Microsoft.Bcl.AsyncInterfaces": "7.0.0",
          "Microsoft.CodeAnalysis.Common": "4.6.0",
          "System.Composition": "7.0.0",
          "System.IO.Pipelines": "7.0.0",
          "System.Threading.Channels": "7.0.0"
        },
        "runtime": {
          "lib/net6.0/Microsoft.CodeAnalysis.Workspaces.dll": {
            "assemblyVersion": "4.6.0.0",
            "fileVersion": "4.600.23.25908"
          }
        },
        "resources": {
          "lib/net6.0/cs/Microsoft.CodeAnalysis.Workspaces.resources.dll": {
            "locale": "cs"
          },
          "lib/net6.0/de/Microsoft.CodeAnalysis.Workspaces.resources.dll": {
            "locale": "de"
          },
          "lib/net6.0/es/Microsoft.CodeAnalysis.Workspaces.resources.dll": {
            "locale": "es"
          },
          "lib/net6.0/fr/Microsoft.CodeAnalysis.Workspaces.resources.dll": {
            "locale": "fr"
          },
          "lib/net6.0/it/Microsoft.CodeAnalysis.Workspaces.resources.dll": {
            "locale": "it"
          },
          "lib/net6.0/ja/Microsoft.CodeAnalysis.Workspaces.resources.dll": {
            "locale": "ja"
          },
          "lib/net6.0/ko/Microsoft.CodeAnalysis.Workspaces.resources.dll": {
            "locale": "ko"
          },
          "lib/net6.0/pl/Microsoft.CodeAnalysis.Workspaces.resources.dll": {
            "locale": "pl"
          },
          "lib/net6.0/pt-BR/Microsoft.CodeAnalysis.Workspaces.resources.dll": {
            "locale": "pt-BR"
          },
          "lib/net6.0/ru/Microsoft.CodeAnalysis.Workspaces.resources.dll": {
            "locale": "ru"
          },
          "lib/net6.0/tr/Microsoft.CodeAnalysis.Workspaces.resources.dll": {
            "locale": "tr"
          },
          "lib/net6.0/zh-Hans/Microsoft.CodeAnalysis.Workspaces.resources.dll": {
            "locale": "zh-Hans"
          },
          "lib/net6.0/zh-Hant/Microsoft.CodeAnalysis.Workspaces.resources.dll": {
            "locale": "zh-Hant"
          }
        }
      },
      "Microsoft.Extensions.Caching.Abstractions/2.1.0": {
        "dependencies": {
          "Microsoft.Extensions.Primitives": "2.1.0"
        },
        "runtime": {
          "lib/netstandard2.0/Microsoft.Extensions.Caching.Abstractions.dll": {
            "assemblyVersion": "2.1.0.0",
            "fileVersion": "2.1.0.18136"
          }
        }
      },
      "Microsoft.Extensions.Caching.Memory/2.1.0": {
        "dependencies": {
          "Microsoft.Extensions.Caching.Abstractions": "2.1.0",
          "Microsoft.Extensions.DependencyInjection.Abstractions": "2.1.0",
          "Microsoft.Extensions.Options": "2.1.0"
        },
        "runtime": {
          "lib/netstandard2.0/Microsoft.Extensions.Caching.Memory.dll": {
            "assemblyVersion": "2.1.0.0",
            "fileVersion": "2.1.0.18136"
          }
        }
      },
      "Microsoft.Extensions.DependencyInjection.Abstractions/2.1.0": {
        "runtime": {
          "lib/netstandard2.0/Microsoft.Extensions.DependencyInjection.Abstractions.dll": {
            "assemblyVersion": "2.1.0.0",
            "fileVersion": "2.1.0.18136"
          }
        }
      },
      "Microsoft.Extensions.Options/2.1.0": {
        "dependencies": {
          "Microsoft.Extensions.DependencyInjection.Abstractions": "2.1.0",
          "Microsoft.Extensions.Primitives": "2.1.0"
        },
        "runtime": {
          "lib/netstandard2.0/Microsoft.Extensions.Options.dll": {
            "assemblyVersion": "2.1.0.0",
            "fileVersion": "2.1.0.18136"
          }
        }
      },
      "Microsoft.Extensions.Primitives/2.1.0": {
        "dependencies": {
          "System.Memory": "4.5.0",
          "System.Runtime.CompilerServices.Unsafe": "6.0.0"
        },
        "runtime": {
          "lib/netstandard2.0/Microsoft.Extensions.Primitives.dll": {
            "assemblyVersion": "2.1.0.0",
            "fileVersion": "2.1.0.18136"
          }
        }
      },
      "Serilog/2.10.1-dev-01285": {
        "runtime": {
          "lib/netstandard2.1/Serilog.dll": {
            "assemblyVersion": "2.0.0.0",
            "fileVersion": "2.10.1.0"
          }
        }
      },
      "System.Collections.Immutable/7.0.0": {
        "dependencies": {
          "System.Runtime.CompilerServices.Unsafe": "6.0.0"
        },
        "runtime": {
          "lib/net6.0/System.Collections.Immutable.dll": {
            "assemblyVersion": "7.0.0.0",
            "fileVersion": "7.0.22.51805"
          }
        }
      },
      "System.Composition/7.0.0": {
        "dependencies": {
          "System.Composition.AttributedModel": "7.0.0",
          "System.Composition.Convention": "7.0.0",
          "System.Composition.Hosting": "7.0.0",
          "System.Composition.Runtime": "7.0.0",
          "System.Composition.TypedParts": "7.0.0"
        }
      },
      "System.Composition.AttributedModel/7.0.0": {
        "runtime": {
          "lib/net6.0/System.Composition.AttributedModel.dll": {
            "assemblyVersion": "7.0.0.0",
            "fileVersion": "7.0.22.51805"
          }
        }
      },
      "System.Composition.Convention/7.0.0": {
        "dependencies": {
          "System.Composition.AttributedModel": "7.0.0"
        },
        "runtime": {
          "lib/net6.0/System.Composition.Convention.dll": {
            "assemblyVersion": "7.0.0.0",
            "fileVersion": "7.0.22.51805"
          }
        }
      },
      "System.Composition.Hosting/7.0.0": {
        "dependencies": {
          "System.Composition.Runtime": "7.0.0"
        },
        "runtime": {
          "lib/net6.0/System.Composition.Hosting.dll": {
            "assemblyVersion": "7.0.0.0",
            "fileVersion": "7.0.22.51805"
          }
        }
      },
      "System.Composition.Runtime/7.0.0": {
        "runtime": {
          "lib/net6.0/System.Composition.Runtime.dll": {
            "assemblyVersion": "7.0.0.0",
            "fileVersion": "7.0.22.51805"
          }
        }
      },
      "System.Composition.TypedParts/7.0.0": {
        "dependencies": {
          "System.Composition.AttributedModel": "7.0.0",
          "System.Composition.Hosting": "7.0.0",
          "System.Composition.Runtime": "7.0.0"
        },
        "runtime": {
          "lib/net6.0/System.Composition.TypedParts.dll": {
            "assemblyVersion": "7.0.0.0",
            "fileVersion": "7.0.22.51805"
          }
        }
      },
      "System.IO.Pipelines/7.0.0": {
        "runtime": {
          "lib/net6.0/System.IO.Pipelines.dll": {
            "assemblyVersion": "7.0.0.0",
            "fileVersion": "7.0.22.51805"
          }
        }
      },
      "System.Memory/4.5.0": {},
      "System.Reflection.Metadata/7.0.0": {
        "dependencies": {
          "System.Collections.Immutable": "7.0.0"
        },
        "runtime": {
          "lib/net6.0/System.Reflection.Metadata.dll": {
            "assemblyVersion": "7.0.0.0",
            "fileVersion": "7.0.22.51805"
          }
        }
      },
      "System.Runtime.CompilerServices.Unsafe/6.0.0": {},
      "System.Text.Encoding.CodePages/7.0.0": {
        "dependencies": {
          "System.Runtime.CompilerServices.Unsafe": "6.0.0"
        },
        "runtime": {
          "lib/net6.0/System.Text.Encoding.CodePages.dll": {
            "assemblyVersion": "7.0.0.0",
            "fileVersion": "7.0.22.51805"
          }
        },
        "runtimeTargets": {
          "runtimes/win/lib/net6.0/System.Text.Encoding.CodePages.dll": {
            "rid": "win",
            "assetType": "runtime",
            "assemblyVersion": "7.0.0.0",
            "fileVersion": "7.0.22.51805"
          }
        }
      },
      "System.Threading.Channels/7.0.0": {
        "runtime": {
          "lib/net6.0/System.Threading.Channels.dll": {
            "assemblyVersion": "7.0.0.0",
            "fileVersion": "7.0.22.51805"
          }
        }
      },
      "Genesis.Core/1.0.0": {
        "dependencies": {
          "Genesis.Shared": "1.0.0"
        },
        "runtime": {
          "Genesis.Core.dll": {}
        }
      },
      "Genesis.Plugin/1.0.0": {
        "dependencies": {
          "Genesis.Shared": "1.0.0",
          "LazyCache": "2.1.3",
          "Microsoft.CodeAnalysis.CSharp.Workspaces": "4.6.0",
          "Microsoft.CodeAnalysis.Common": "4.6.0",
          "Serilog": "2.10.1-dev-01285"
        },
        "runtime": {
          "Genesis.Plugin.dll": {}
        }
      },
      "Genesis.Shared/1.0.0": {
        "runtime": {
          "Genesis.Shared.dll": {}
        }
      }
    }
  },
  "libraries": {
    "Genesis.Core.Plugin/1.0.0": {
      "type": "project",
      "serviceable": false,
      "sha512": ""
    },
    "Humanizer.Core/2.14.1": {
      "type": "package",
      "serviceable": true,
      "sha512": "sha512-lQKvtaTDOXnoVJ20ibTuSIOf2i0uO0MPbDhd1jm238I+U/2ZnRENj0cktKZhtchBMtCUSRQ5v4xBCUbKNmyVMw==",
      "path": "humanizer.core/2.14.1",
      "hashPath": "humanizer.core.2.14.1.nupkg.sha512"
    },
    "LazyCache/2.1.3": {
      "type": "package",
      "serviceable": true,
      "sha512": "sha512-ChlOOOzg6pUmqieYUpdRNaHIXn8qwTJi6m8Jyq4hwIUHqxevmeSjZQAoZyVoYdiH4yJiylfKj39hQy9ryZMlCw==",
      "path": "lazycache/2.1.3",
      "hashPath": "lazycache.2.1.3.nupkg.sha512"
    },
    "Microsoft.Bcl.AsyncInterfaces/7.0.0": {
      "type": "package",
      "serviceable": true,
      "sha512": "sha512-3aeMZ1N0lJoSyzqiP03hqemtb1BijhsJADdobn/4nsMJ8V1H+CrpuduUe4hlRdx+ikBQju1VGjMD1GJ3Sk05Eg==",
      "path": "microsoft.bcl.asyncinterfaces/7.0.0",
      "hashPath": "microsoft.bcl.asyncinterfaces.7.0.0.nupkg.sha512"
    },
    "Microsoft.CodeAnalysis.Analyzers/3.3.4": {
      "type": "package",
      "serviceable": true,
      "sha512": "sha512-AxkxcPR+rheX0SmvpLVIGLhOUXAKG56a64kV9VQZ4y9gR9ZmPXnqZvHJnmwLSwzrEP6junUF11vuc+aqo5r68g==",
      "path": "microsoft.codeanalysis.analyzers/3.3.4",
      "hashPath": "microsoft.codeanalysis.analyzers.3.3.4.nupkg.sha512"
    },
    "Microsoft.CodeAnalysis.Common/4.6.0": {
      "type": "package",
      "serviceable": true,
      "sha512": "sha512-N3uLvekc7DjvE1BX8YW7UH7ldjA4ps/Tun2YmOoSIItJrh1gnQIMKUbK1c3uQUx2NHbLibVZI4o/VB9xb4B7tA==",
      "path": "microsoft.codeanalysis.common/4.6.0",
      "hashPath": "microsoft.codeanalysis.common.4.6.0.nupkg.sha512"
    },
    "Microsoft.CodeAnalysis.CSharp/4.6.0": {
      "type": "package",
      "serviceable": true,
      "sha512": "sha512-9pyFZUN2Lyu3C0Xfs49kezfH+CzQHMibGsQeQPu0P+GWyH2XXDwmyZ6jAaKQGNUXOJfC2OK01hWMJTJY315uDQ==",
      "path": "microsoft.codeanalysis.csharp/4.6.0",
      "hashPath": "microsoft.codeanalysis.csharp.4.6.0.nupkg.sha512"
    },
    "Microsoft.CodeAnalysis.CSharp.Workspaces/4.6.0": {
      "type": "package",
      "serviceable": true,
      "sha512": "sha512-xQa3Ir0HifjTrH01bk2JSjHcU4JxC1LBQw1wC9Ewf3Y2sNttQOn73tQaZcye2Lwrm0Kiec+Vuee8HsEgGIvOnQ==",
      "path": "microsoft.codeanalysis.csharp.workspaces/4.6.0",
      "hashPath": "microsoft.codeanalysis.csharp.workspaces.4.6.0.nupkg.sha512"
    },
    "Microsoft.CodeAnalysis.Workspaces.Common/4.6.0": {
      "type": "package",
      "serviceable": true,
      "sha512": "sha512-KnBOTRwn2Tt4JXuec+P4aVO4N6zKZDACwtVA++mnZUHujmPG5xWX7whoEIW4bAp1nuAugnn0K9xpuaRBtRltpg==",
      "path": "microsoft.codeanalysis.workspaces.common/4.6.0",
      "hashPath": "microsoft.codeanalysis.workspaces.common.4.6.0.nupkg.sha512"
    },
    "Microsoft.Extensions.Caching.Abstractions/2.1.0": {
      "type": "package",
      "serviceable": true,
      "sha512": "sha512-R7uAb/JRwb9YQBB0qqLlX2qv4RBC/BqqIqFDqzvCjT0T2uPpbuTINLKGp+7uX2dbxjt3cpebSu5GvebeiKYpQA==",
      "path": "microsoft.extensions.caching.abstractions/2.1.0",
      "hashPath": "microsoft.extensions.caching.abstractions.2.1.0.nupkg.sha512"
    },
    "Microsoft.Extensions.Caching.Memory/2.1.0": {
      "type": "package",
      "serviceable": true,
      "sha512": "sha512-Jc1TrYtOxX9gsUXI4ZPVfPLI9aGjGTzVEs/qsBPw2GA+Td840YN4CvXCjgrLtWJckxl6KRNHgoYYBQgZZ/LTqg==",
      "path": "microsoft.extensions.caching.memory/2.1.0",
      "hashPath": "microsoft.extensions.caching.memory.2.1.0.nupkg.sha512"
    },
    "Microsoft.Extensions.DependencyInjection.Abstractions/2.1.0": {
      "type": "package",
      "serviceable": true,
      "sha512": "sha512-8/CtASu80UIoyG+r8FstrmZW5GLtXxzoYpjj3jV0FKZCL5CiFgSH3pAmqut/dC68mu7N1bU6v0UtKKL3gCUQGQ==",
      "path": "microsoft.extensions.dependencyinjection.abstractions/2.1.0",
      "hashPath": "microsoft.extensions.dependencyinjection.abstractions.2.1.0.nupkg.sha512"
    },
    "Microsoft.Extensions.Options/2.1.0": {
      "type": "package",
      "serviceable": true,
      "sha512": "sha512-VOM1pPMi9+7/4Vc9aPLU8btHOBQy1+AvpqxLxFI2OVtqGv+1klPaV59g9R6aSt2U7ijfB3TjvAO4Tc/cn9/hxA==",
      "path": "microsoft.extensions.options/2.1.0",
      "hashPath": "microsoft.extensions.options.2.1.0.nupkg.sha512"
    },
    "Microsoft.Extensions.Primitives/2.1.0": {
      "type": "package",
      "serviceable": true,
      "sha512": "sha512-gMwH6wgWOPfyfLfMLEP+ZF7/MSJq35e0xxKEYUjt8veEznY45nBVqdfI876+9SFQq2ChcqKf2UyYc2XYj2v27w==",
      "path": "microsoft.extensions.primitives/2.1.0",
      "hashPath": "microsoft.extensions.primitives.2.1.0.nupkg.sha512"
    },
    "Serilog/2.10.1-dev-01285": {
      "type": "package",
      "serviceable": true,
      "sha512": "sha512-ldoo2Rufn/RYdBYX180xxvGEdRu8QG3/zuZD+ZnpvTlOP5BwHcHnGEL27HORjxFTC9dP/KtIPmTvv/jRQcnY6Q==",
      "path": "serilog/2.10.1-dev-01285",
      "hashPath": "serilog.2.10.1-dev-01285.nupkg.sha512"
    },
    "System.Collections.Immutable/7.0.0": {
      "type": "package",
      "serviceable": true,
      "sha512": "sha512-dQPcs0U1IKnBdRDBkrCTi1FoajSTBzLcVTpjO4MBCMC7f4pDOIPzgBoX8JjG7X6uZRJ8EBxsi8+DR1JuwjnzOQ==",
      "path": "system.collections.immutable/7.0.0",
      "hashPath": "system.collections.immutable.7.0.0.nupkg.sha512"
    },
    "System.Composition/7.0.0": {
      "type": "package",
      "serviceable": true,
      "sha512": "sha512-tRwgcAkDd85O8Aq6zHDANzQaq380cek9lbMg5Qma46u5BZXq/G+XvIYmu+UI+BIIZ9zssXLYrkTykEqxxvhcmg==",
      "path": "system.composition/7.0.0",
      "hashPath": "system.composition.7.0.0.nupkg.sha512"
    },
    "System.Composition.AttributedModel/7.0.0": {
      "type": "package",
      "serviceable": true,
      "sha512": "sha512-2QzClqjElKxgI1jK1Jztnq44/8DmSuTSGGahXqQ4TdEV0h9s2KikQZIgcEqVzR7OuWDFPGLHIprBJGQEPr8fAQ==",
      "path": "system.composition.attributedmodel/7.0.0",
      "hashPath": "system.composition.attributedmodel.7.0.0.nupkg.sha512"
    },
    "System.Composition.Convention/7.0.0": {
      "type": "package",
      "serviceable": true,
      "sha512": "sha512-IMhTlpCs4HmlD8B+J8/kWfwX7vrBBOs6xyjSTzBlYSs7W4OET4tlkR/Sg9NG8jkdJH9Mymq0qGdYS1VPqRTBnQ==",
      "path": "system.composition.convention/7.0.0",
      "hashPath": "system.composition.convention.7.0.0.nupkg.sha512"
    },
    "System.Composition.Hosting/7.0.0": {
      "type": "package",
      "serviceable": true,
      "sha512": "sha512-eB6gwN9S+54jCTBJ5bpwMOVerKeUfGGTYCzz3QgDr1P55Gg/Wb27ShfPIhLMjmZ3MoAKu8uUSv6fcCdYJTN7Bg==",
      "path": "system.composition.hosting/7.0.0",
      "hashPath": "system.composition.hosting.7.0.0.nupkg.sha512"
    },
    "System.Composition.Runtime/7.0.0": {
      "type": "package",
      "serviceable": true,
      "sha512": "sha512-aZJ1Zr5Txe925rbo4742XifEyW0MIni1eiUebmcrP3HwLXZ3IbXUj4MFMUH/RmnJOAQiS401leg/2Sz1MkApDw==",
      "path": "system.composition.runtime/7.0.0",
      "hashPath": "system.composition.runtime.7.0.0.nupkg.sha512"
    },
    "System.Composition.TypedParts/7.0.0": {
      "type": "package",
      "serviceable": true,
      "sha512": "sha512-ZK0KNPfbtxVceTwh+oHNGUOYV2WNOHReX2AXipuvkURC7s/jPwoWfsu3SnDBDgofqbiWr96geofdQ2erm/KTHg==",
      "path": "system.composition.typedparts/7.0.0",
      "hashPath": "system.composition.typedparts.7.0.0.nupkg.sha512"
    },
    "System.IO.Pipelines/7.0.0": {
      "type": "package",
      "serviceable": true,
      "sha512": "sha512-jRn6JYnNPW6xgQazROBLSfpdoczRw694vO5kKvMcNnpXuolEixUyw6IBuBs2Y2mlSX/LdLvyyWmfXhaI3ND1Yg==",
      "path": "system.io.pipelines/7.0.0",
      "hashPath": "system.io.pipelines.7.0.0.nupkg.sha512"
    },
    "System.Memory/4.5.0": {
      "type": "package",
      "serviceable": true,
      "sha512": "sha512-m0psCSpUxTGfvwyO0i03ajXVhgBqyXlibXz0Mo1dtKGjaHrXFLnuQ8rNBTmWRqbfRjr4eC6Wah4X5FfuFDu5og==",
      "path": "system.memory/4.5.0",
      "hashPath": "system.memory.4.5.0.nupkg.sha512"
    },
    "System.Reflection.Metadata/7.0.0": {
      "type": "package",
      "serviceable": true,
      "sha512": "sha512-MclTG61lsD9sYdpNz9xsKBzjsmsfCtcMZYXz/IUr2zlhaTaABonlr1ESeompTgM+Xk+IwtGYU7/voh3YWB/fWw==",
      "path": "system.reflection.metadata/7.0.0",
      "hashPath": "system.reflection.metadata.7.0.0.nupkg.sha512"
    },
    "System.Runtime.CompilerServices.Unsafe/6.0.0": {
      "type": "package",
      "serviceable": true,
      "sha512": "sha512-/iUeP3tq1S0XdNNoMz5C9twLSrM/TH+qElHkXWaPvuNOt+99G75NrV0OS2EqHx5wMN7popYjpc8oTjC1y16DLg==",
      "path": "system.runtime.compilerservices.unsafe/6.0.0",
      "hashPath": "system.runtime.compilerservices.unsafe.6.0.0.nupkg.sha512"
    },
    "System.Text.Encoding.CodePages/7.0.0": {
      "type": "package",
      "serviceable": true,
      "sha512": "sha512-LSyCblMpvOe0N3E+8e0skHcrIhgV2huaNcjUUEa8hRtgEAm36aGkRoC8Jxlb6Ra6GSfF29ftduPNywin8XolzQ==",
      "path": "system.text.encoding.codepages/7.0.0",
      "hashPath": "system.text.encoding.codepages.7.0.0.nupkg.sha512"
    },
    "System.Threading.Channels/7.0.0": {
      "type": "package",
      "serviceable": true,
      "sha512": "sha512-qmeeYNROMsONF6ndEZcIQ+VxR4Q/TX/7uIVLJqtwIWL7dDWeh0l1UIqgo4wYyjG//5lUNhwkLDSFl+pAWO6oiA==",
      "path": "system.threading.channels/7.0.0",
      "hashPath": "system.threading.channels.7.0.0.nupkg.sha512"
    },
    "Genesis.Core/1.0.0": {
      "type": "project",
      "serviceable": false,
      "sha512": ""
    },
    "Genesis.Plugin/1.0.0": {
      "type": "project",
      "serviceable": false,
      "sha512": ""
    },
    "Genesis.Shared/1.0.0": {
      "type": "project",
      "serviceable": false,
      "sha512": ""
    }
  }
}